<svg xmlns="http://www.w3.org/2000/svg" viewBox="0 0 17.812 23.812">
  <g fill="none" stroke="#FFF" stroke-width=".75" stroke-miterlimit="10">
    <path d="M.803.625H17.01V23H.803zM3.62 23V.986M5.383 5.677h9.865M5.383 7.843h9.865"/>
  </g>
</svg>
