<svg xmlns="http://www.w3.org/2000/svg" viewBox="0 0 23.312 23.812">
  <g fill="none" stroke="#FFF" stroke-width=".75" stroke-miterlimit="10">
    <circle cx="11.748" cy="11.788" r="10.748"/>
    <path d="M9.96 15.16V8.494c0-.243.28-.378.47-.228l4.26 3.365c.15.12.148.346 0 .46l-4.262 3.3c-.192.15-.468.01-.468-.23z"/>
  </g>
</svg>
