<?xml version="1.0" standalone="no"?>
<!DOCTYPE svg PUBLIC "-//W3C//DTD SVG 20010904//EN"
 "http://www.w3.org/TR/2001/REC-SVG-20010904/DTD/svg10.dtd">
<svg version="1.0" xmlns="http://www.w3.org/2000/svg"
 width="16.000000pt" height="16.000000pt" viewBox="0 0 16.000000 16.000000"
 preserveAspectRatio="xMidYMid meet">
<metadata>
Created by potrace 1.11, written by Peter Selinger 2001-2013
</metadata>
<g transform="translate(0.000000,16.000000) scale(0.022857,-0.022857)"
fill="#000000" stroke="none">
<path d="M258 562 c-12 -16 -11 -16 7 -2 15 11 14 7 -4 -13 -25 -28 -38 -36
-25 -15 4 7 3 8 -5 4 -6 -4 -9 -12 -6 -17 4 -5 0 -12 -9 -15 -9 -3 -12 -12 -8
-22 5 -14 3 -15 -10 -4 -13 11 -16 10 -14 -5 0 -10 -4 -17 -11 -16 -7 2 -10
-3 -7 -10 5 -13 -40 -59 -49 -50 -3 3 -4 -3 -3 -14 5 -25 -5 -38 -15 -22 -7
11 -9 9 -10 -6 -1 -11 -1 -24 0 -28 1 -5 -2 -7 -6 -4 -10 5 -43 -29 -35 -37 3
-3 0 -6 -7 -6 -7 0 -9 -4 -6 -10 4 -6 -1 -7 -11 -3 -14 5 -16 3 -11 -11 4 -10
3 -15 -3 -11 -6 4 -10 -10 -10 -33 0 -30 4 -39 18 -39 9 0 20 5 24 11 5 8 8 7
8 -2 0 -8 15 -11 50 -10 33 2 50 7 50 16 0 7 5 10 10 7 6 -3 10 -1 10 6 0 6 8
18 18 25 16 13 16 14 -3 8 -13 -3 -10 0 7 10 15 9 29 25 33 36 3 11 15 25 26
30 10 6 19 17 19 25 0 8 9 19 20 25 11 6 18 15 15 20 -3 5 3 11 14 15 11 3 25
13 33 23 12 15 11 16 -5 3 -15 -12 -17 -12 -11 3 3 9 10 16 15 16 5 0 9 7 9
15 0 8 3 14 8 13 4 -2 7 -1 8 2 1 13 53 60 65 60 11 0 11 2 -1 10 -13 9 -13
10 0 10 11 0 9 4 -5 12 -23 14 -65 17 -65 5 0 -4 -9 -3 -20 3 -12 6 -20 7 -20
1 0 -6 -11 -6 -29 -1 -23 6 -33 4 -43 -8z"/>
<path d="M536 568 c5 -7 -10 -12 -28 -9 -5 0 -8 -6 -8 -14 0 -8 -8 -15 -17
-15 -15 0 -16 -2 -3 -10 11 -7 11 -10 2 -10 -8 0 -10 -5 -6 -12 5 -8 2 -9 -10
-5 -9 4 -15 3 -11 -2 3 -6 -3 -14 -12 -20 -10 -6 -15 -11 -11 -11 4 0 -4 -12
-17 -26 -14 -15 -22 -32 -18 -38 4 -6 -1 -5 -10 3 -15 12 -17 12 -12 -2 4 -8
1 -18 -6 -23 -8 -5 -10 -3 -4 6 5 9 4 11 -4 6 -8 -6 -9 -12 -2 -20 14 -16 4
-26 -17 -18 -15 5 -15 3 -4 -10 10 -13 10 -18 1 -24 -8 -4 -9 -3 -5 4 4 7 3
12 -2 12 -14 0 -24 -29 -15 -43 4 -7 -2 -5 -12 3 -11 9 -16 10 -11 3 4 -8 1
-13 -8 -13 -10 0 -13 -6 -9 -17 5 -12 2 -15 -9 -10 -12 4 -14 1 -10 -15 3 -12
1 -19 -5 -15 -5 3 -18 -8 -28 -26 -10 -18 -12 -27 -6 -21 15 14 53 6 44 -9 -4
-6 -1 -7 7 -2 7 4 36 9 64 10 73 2 78 4 70 17 -5 8 -2 9 9 5 9 -3 16 -3 16 1
-3 21 2 32 13 26 7 -4 8 -3 4 4 -4 7 7 25 24 42 17 17 28 35 25 40 -4 6 1 7
11 3 14 -5 16 -3 11 11 -6 14 -3 17 9 12 12 -5 15 -2 10 9 -4 11 -1 15 11 13
14 -3 22 12 25 49 1 6 6 9 13 7 6 -3 20 4 30 16 10 11 15 20 10 20 -4 0 -14
-8 -22 -17 -13 -16 -13 -16 -4 3 6 12 7 24 3 28 -3 4 1 4 11 0 10 -4 17 -1 17
6 0 7 6 10 14 7 9 -4 12 0 9 12 -2 10 4 24 14 32 17 13 17 13 3 -6 -15 -20
-14 -20 8 -1 22 19 30 56 12 56 -5 0 -10 -5 -10 -12 0 -6 -7 -3 -15 8 -11 14
-14 15 -15 4 0 -13 -1 -13 -10 0 -5 8 -10 10 -10 4 0 -7 -17 -8 -49 -4 -28 3
-48 3 -45 -2z"/>
</g>
</svg>
