<svg xmlns="http://www.w3.org/2000/svg" viewBox="0 0 29.375 23.812">
  <g fill="none" stroke="#B38BBF" stroke-width=".75" stroke-miterlimit="10">
    <path d="M.888.58h27.86v22.467H.888zm0 3.594h27.86M4.932 2.376H3.135m5.39 0H6.73m5.39 0h-1.796m-7.19 6.29h12.133M3.135 12.263h12.132M3.135 15.857h12.132"/>
    <path d="M17.514 8.667h8.538v7.19h-8.538z"/>
  </g>
</svg>
