<?xml version="1.0" encoding="utf-8"?>
<!-- Generator: Adobe Illustrator 16.0.0, SVG Export Plug-In . SVG Version: 6.00 Build 0)  -->
<!DOCTYPE svg PUBLIC "-//W3C//DTD SVG 1.1//EN" "http://www.w3.org/Graphics/SVG/1.1/DTD/svg11.dtd">
<svg version="1.1" id="Layer_1" xmlns="http://www.w3.org/2000/svg" xmlns:xlink="http://www.w3.org/1999/xlink" x="0px" y="0px"
	 width="15.36px" height="15.36px" viewBox="0 0 15.36 15.36" enable-background="new 0 0 15.36 15.36" xml:space="preserve">
<path fill-rule="evenodd" clip-rule="evenodd" fill="#70BFEA" d="M11.266,7.478l-6.14-4.069C5.083,3.379,5.03,3.36,4.981,3.36
	c-0.119,0-0.187,0.086-0.187,0.234V4.32L4.8,4.8v6.48v0.479H4.795v0.015C4.795,11.918,4.858,12,4.973,12
	c0.054,0,0.11-0.02,0.163-0.053l6.11-4.157c0.116-0.072,0.153-0.139,0.153-0.168C11.399,7.603,11.366,7.541,11.266,7.478
	 M11.51,8.188l-6.12,4.166c-0.134,0.088-0.277,0.125-0.417,0.125c-0.346,0-0.652-0.269-0.652-0.705V11.28h0.005V4.8H4.32V3.595
	c0-0.44,0.307-0.715,0.661-0.715c0.136,0,0.274,0.038,0.408,0.125l6.13,4.065C12,7.378,11.99,7.882,11.51,8.188 M14.88,2.88
	c0-1.325-1.075-2.4-2.4-2.4h-9.6c-1.325,0-2.4,1.075-2.4,2.4v9.6c0,1.325,1.075,2.4,2.4,2.4h9.6c1.325,0,2.4-1.075,2.4-2.4V2.88z
	 M12.479,15.36h-9.6C1.291,15.36,0,14.069,0,12.479v-9.6C0,1.291,1.291,0,2.88,0h9.6c1.59,0,2.881,1.291,2.881,2.88v9.6
	C15.36,14.069,14.069,15.36,12.479,15.36"/>
</svg>
